<?xml version="1.0" encoding="UTF-8"?>
<svg xmlns="http://www.w3.org/2000/svg" xmlns:xlink="http://www.w3.org/1999/xlink" width="30pt" height="30pt" viewBox="0 0 30 30" version="1.1">
<g id="surface1">
<path style=" stroke:none;fill-rule:nonzero;fill:rgb(99.215686%,16.078431%,10.196078%);fill-opacity:1;" d="M 22.203125 0.0078125 L 18.363281 0 C 14.050781 0 11.265625 2.863281 11.265625 7.285156 L 11.265625 10.644531 L 7.402344 10.644531 C 7.066406 10.644531 6.800781 10.917969 6.800781 11.246094 L 6.800781 16.117188 C 6.800781 16.449219 7.074219 16.71875 7.402344 16.71875 L 11.265625 16.71875 L 11.265625 29 C 11.265625 29.332031 11.539062 29.601562 11.867188 29.601562 L 16.902344 29.601562 C 17.234375 29.601562 17.503906 29.328125 17.503906 29 L 17.503906 16.722656 L 22.019531 16.722656 C 22.355469 16.722656 22.621094 16.449219 22.621094 16.121094 L 22.621094 11.253906 C 22.621094 11.089844 22.554688 10.941406 22.4375 10.824219 C 22.324219 10.707031 22.175781 10.644531 22.015625 10.644531 L 17.496094 10.644531 L 17.496094 7.796875 C 17.496094 6.429688 17.820312 5.734375 19.609375 5.734375 L 22.191406 5.734375 C 22.527344 5.734375 22.792969 5.460938 22.792969 5.132812 L 22.792969 0.605469 C 22.804688 0.277344 22.53125 0.0078125 22.203125 0.0078125 Z M 22.203125 0.0078125 "/>
</g>
</svg>
